[2018-09-11 10:38:19.208] [jointLog] [info] parsing read library format
[2018-09-11 10:38:19.208] [jointLog] [info] There is 1 library.
[2018-09-11 10:38:19.270] [jointLog] [info] Loading Quasi index
[2018-09-11 10:38:19.270] [jointLog] [info] Loading 32-bit quasi index
[2018-09-11 10:38:22.473] [jointLog] [info] done
[2018-09-11 10:38:22.473] [jointLog] [info] Index contained 134507 targets
[2018-09-11 10:39:31.210] [fileLog] [info] 
At end of round 0
==================
Observed 11410545 total fragments (11410545 in most recent round)

[2018-09-11 10:39:31.209] [jointLog] [info] Computed 144699 rich equivalence classes for further processing
[2018-09-11 10:39:31.209] [jointLog] [info] Counted 9208989 total reads in the equivalence classes 
[2018-09-11 10:39:31.211] [jointLog] [info] Mapping rate = 80.706%

[2018-09-11 10:39:31.211] [jointLog] [info] finished quantifyLibrary()
[2018-09-11 10:39:31.211] [jointLog] [info] Starting optimizer
[2018-09-11 10:39:31.268] [jointLog] [info] Marked 0 weighted equivalence classes as degenerate
[2018-09-11 10:39:31.272] [jointLog] [info] iteration = 0 | max rel diff. = 24.518
[2018-09-11 10:39:31.638] [jointLog] [info] iteration = 100 | max rel diff. = 0.0998888
[2018-09-11 10:39:32.007] [jointLog] [info] iteration = 200 | max rel diff. = 0.059169
[2018-09-11 10:39:32.375] [jointLog] [info] iteration = 300 | max rel diff. = 0.0339035
[2018-09-11 10:39:32.744] [jointLog] [info] iteration = 400 | max rel diff. = 0.0293195
[2018-09-11 10:39:33.114] [jointLog] [info] iteration = 500 | max rel diff. = 0.0256736
[2018-09-11 10:39:33.483] [jointLog] [info] iteration = 600 | max rel diff. = 0.0193634
[2018-09-11 10:39:33.852] [jointLog] [info] iteration = 700 | max rel diff. = 0.0142415
[2018-09-11 10:39:34.248] [jointLog] [info] iteration = 800 | max rel diff. = 0.0142414
[2018-09-11 10:39:34.622] [jointLog] [info] iteration = 900 | max rel diff. = 0.0113362
[2018-09-11 10:39:34.815] [jointLog] [info] iteration = 953 | max rel diff. = 0.00996915
[2018-09-11 10:39:34.829] [jointLog] [info] Finished optimizer
[2018-09-11 10:39:34.829] [jointLog] [info] writing output 

[2018-09-11 10:39:35.033] [jointLog] [warning] NOTE: Read Lib [( /dev/fd/63, /dev/fd/62 )] :

Greater than 5% of the fragments disagreed with the provided library type; check the file: Regeneration_S1_2/lib_format_counts.json for details

