{
    "read_files": "( /dev/fd/63, /dev/fd/62 )",
    "expected_format": "ISR",
    "compatible_fragment_ratio": 0.9103169598241826,
    "num_compatible_fragments": 6497299,
    "num_assigned_fragments": 7137403,
    "num_consistent_mappings": 21071354,
    "num_inconsistent_mappings": 1487650,
    "MSF": 0,
    "OSF": 128,
    "ISF": 60966,
    "MSR": 0,
    "OSR": 288138,
    "ISR": 21071354,
    "SF": 23231,
    "SR": 1114303,
    "MU": 0,
    "OU": 0,
    "IU": 0,
    "U": 0
}