TR11546|c0_g1_i1__Disintegrin-metalloproteinase-like	Xe_012680-T1	62.8	487	179	2	1	486	149	634	3.8e-207	588.2
TR17041_c0_g1_i1__Collagen-alpha-chain-like	Xe_001362-T1	68.8	221	69	0	238	458	1122	1342	3.1e-101	329.3
TR17072_c10_g1_i2__Histone-H2B	Xe_004668-T1	96.7	122	4	0	3	124	2	123	3.0e-77	223.8
TR2606|c0_g1_i1_Collagentriplehelixrepeatcontainingprotein1-like	Xe_011016-T1	54.1	135	59	2	42	176	177	308	1.3e-47	157.1
TR27763_c0_g1_i1__Uncharacterized_protein_1	Xe_002440-T1	53.9	466	209	4	1	465	229	689	8.1e-176	510.4
TR3146_c0_g1_i1__Collagen-alpha-chain-like	Xe_002979-T1	79.7	572	113	1	8	576	1	572	1.6e-125	380.6
TR34379_c0_g1_i1__Protein–kinase_c_binding_NELL1–like	Xe_016057-T1	43.0	391	205	7	18	404	19	395	1.2e-95	295.8
TR36688|c3_g1_i1_secreted_frizzled_related_protein_5_like	Xe_022380-T1	43.1	267	132	7	30	295	29	276	1.8e-67	211.5
TR37893_c0_g1_i1__Sushi_domain_containing_protein_2-like	Xe_013053-T1	63.3	98	36	0	2	99	189	286	3.7e-37	131.7
TR42435|c0_g1_i1_Hephaestin_like	Xe_005238-T1	72.2	645	169	4	13	650	418	1059	0.0e+00	988.8
TR46363_c2_g1_i1_Collagen_alpha_1_chain_like	Xe_002805-T1	40.4	297	165	8	76	362	74	368	1.6e-66	218.4
TR47775|c0_g2_i1__Uncharacterized_protein_2	Xe_025040-T2	32.5	197	62	7	44	240	118	243	1.2e-10	60.8
TR47841|c0_g2_i1__Coadhesin-like	Xe_002826-T1	37.8	421	227	8	1	418	60	448	8.6e-92	284.3
TR49167|c0_g1_i1__Collagen-alpha-chain-like	Xe_002856-T1	53.6	612	224	8	2	607	102	659	1.0e-210	602.8
TR7358_c4_g1_i1__Histone_H4	Xe_001264-T1	100.0	103	0	0	1	103	1	103	2.7e-68	199.5
TR1820|c0_g1_i1_Fibrillin_like	Xe_022333-T1	39.8	118	66	1	5	117	129	246	2.0e-26	102.1
TR7436_c0_g1_i1__Agrin-like	Xe_018671-T1	33.1	531	231	11	105	533	477	985	4.7e-94	315.5
TR18128|c8_g2_i1_Multiple_inositolpolyphosphate1-like	Xe_015663-T1	60.0	473	180	6	10	480	3	468	8.1e-194	547.4
TR21697|c0_g1_i1_Folate_receptor_beta	Xe_015521-T1	58.2	409	158	8	28	429	635	1037	4.3e-180	531.6
TR27914|c0_g1_i1_Calsyntenin-1-like	Xe_012893-T1	64.6	624	217	4	1	623	259	879	2.2e-306	859.0
TR7446_c4_g1_i1__Peptidyl-cis-trans_isomerase_B–like	Xe_023285-T1	82.6	161	28	0	2	162	3	163	1.1e-95	275.4
TR53207|c0_g2_i1_Sialate-O-acetylesterase-like	Xe_005674-T1	62.7	496	177	4	34	525	1	492	1.3e-237	662.1
TR7482|c1_g1_i2_Uncharacterized_protein	Xe_022270-T1	45.6	250	132	2	18	267	17	262	1.8e-71	220.3
TR7525|c0_g1_i1_Zonadhesin-like	Xe_022333-T1	32.3	1051	374	27	1	748	308	1323	1.8e-156	506.1
TR30761|c13_g1_i1_Ryncolin_1-like	Xe_027783-T1	66.0	212	72	0	51	262	21	232	1.6e-110	318.2
TR19701|c3_g1_i4_Serotrasnferrin-like	Xe_007197-T1	55.6	178	74	3	41	214	7	183	5.1e-65	203.4
TR30765|c6_g1_i1_Frizzled_4_protein	Xe_010901-T1	52.6	439	198	4	1	439	85	513	3.0e-164	473.4
TR38095|c0_g1_i1_Collagenalpha—4(VI)chain-like	Xe_002592-T1	51.8	421	200	3	2	421	472	890	1.8e-135	419.1
TR47128|c0_g2_i1_Uncharecterized_protein	Xe_000788-T1	28.3	113	77	4	54	166	24	132	1.5e-08	50.4
TR40404|c0_g1_i1_Collagenalpha-1(I)chain-like	Xe_008243-T1	79.5	264	51	1	1367	1630	1363	1623	1.2e-127	437.6
TR36167|c0_g1_i1_Hypotethical_protein	Xe_014974-T1	58.9	270	110	1	45	314	58	326	3.2e-112	328.2
TR8951|c0_g1_i1_Uncharacterized_protein	Xe_015047-T1	65.1	229	79	1	33	260	1	229	8.1e-111	318.5
TR4748|c0_g1_i1_Uncharacterized_protein	Xe_004823-T1	38.3	141	83	3	28	164	47	187	3.3e-30	108.2
TR7433|c1_g1_i1_Cathepsin_B	Xe_002746-T1	64.2	179	59	4	1	176	1	177	3.9e-82	246.1
TR18082|c1_g3_i1_Fibrillin_2_like	Xe_003677-T1	37.0	162	87	6	17	178	5	151	6.3e-32	112.5
TR30710|c0_g1_i1_tectoninbeta_propeller_repeat_containing_protein	Xe_023629-T1	61.9	488	176	3	25	512	22	499	4.4e-61	208.4
TR28129|c0_g1_i1_Uncharacterized_protein	Xe_024447-T1	55.5	344	141	6	15	349	17	357	6.7e-129	373.2
TR28630|c0_g1_i1_Collagen_triple_helix_repeat-containing_protein1-like	Xe_015037-T1	42.2	180	87	8	10	177	7	181	6.3e-40	133.7
TR36769|c0_g1_i1_Retinoid-inducible_serine_carboxypeptidase-like	Xe_012800-T1	66.9	350	116	0	1	350	6	355	1.1e-168	481.1
TR1198|c2_g1_i1_Uncharacterized_protein	Xe_014410-T2	41.8	1238	602	13	296	1452	6349	7549	4.4e-282	896.0
TR1482|c0_g1_i1_counting_factor_60	Xe_013884-T1	63.4	399	136	3	18	414	18	408	5.3e-190	532.7
