DN45117_c0_g1_i1_Ganglioside_GM2_activator_like	Xe_002139-T1	26.3	179	120	7	1	174	7	178	7.1e-11	57.8
DN60904_c0_g1_i1_Acidic_protein_1	Xe_002334-T1	25.8	287	201	10	18	299	26	305	3.2e-29	114.0
DN62899_c5_g5_i1_Sushi_domain-containing_protein_2-like	Xe_013053-T1	52.8	976	439	11	22	992	18	976	0.0e+00	1050.0
DN64224_c6_g1_i2_CruCA4_like1	Xe_014581-T1	49.7	169	83	1	119	287	119	285	1.9e-53	176.4
DN64689_c5_g1_i4_CruCA4_like2	Xe_014581-T1	51.2	172	84	0	111	282	114	285	3.5e-60	193.4
DN64741_c1_g1_i4_Endothelin_converting_enzyme-like	Xe_012889-T1	55.3	579	246	4	1	570	129	703	1.0e-229	654.8
DN65525_c4_g13_i1_Adhesion_G_protein_coupled_receptor_like	Xe_008241-T1	34.7	470	286	7	20	479	132	590	6.1e-87	280.8
DN66065_c0_g1_i4_Protocadherin_fat4-like	Xe_003386-T1	54.3	1866	827	15	24	1880	26	1874	0.0e+00	1850.1
