{
    "read_files": "( /dev/fd/63, /dev/fd/62 )",
    "expected_format": "ISR",
    "compatible_fragment_ratio": 0.9198894766195668,
    "num_compatible_fragments": 5734901,
    "num_assigned_fragments": 6234337,
    "num_consistent_mappings": 19073391,
    "num_inconsistent_mappings": 1148040,
    "MSF": 0,
    "OSF": 67,
    "ISF": 51151,
    "MSR": 0,
    "OSR": 228544,
    "ISR": 19073391,
    "SF": 12254,
    "SR": 855885,
    "MU": 0,
    "OU": 0,
    "IU": 0,
    "U": 0
}