gene	baseMean	log2FoldChange	lfcSE	pvalue	padj	annotation	
Xenia_sp_TRINITY_DN70010_c1_g1	57.95470786	6.190364689	1.846540185	3.76E-05	0.012089601	Elongation factor 1-alpha OS=Cryptosporidium parvum OX=5807 PE=2 SV=1	
Xenia_sp_TRINITY_DN68069_c0_g3	43.73867701	4.811603876	1.54813582	0.000103477	0.024952301		
Xenia_sp_TRINITY_DN19848_c0_g1	27.11714308	4.554304471	1.139395909	2.08E-06	0.0011505	Heparan-sulfate 6-O-sulfotransferase 3-B OS=Danio rerio OX=7955 GN=hs6st3b PE=1 SV=1	
Xenia_sp_TRINITY_DN67727_c2_g1	28.20752744	4.545208018	0.972105509	1.09E-07	0.000121068	Serine protease 23 OS=Homo sapiens OX=9606 GN=PRSS23 PE=1 SV=1	
Xenia_sp_TRINITY_DN60835_c0_g1	41.23406303	4.480479833	1.165315026	7.82E-06	0.003574477		
Xenia_sp_TRINITY_DN62715_c0_g2	318.4978762	4.451447986	0.69479081	9.41E-12	3.50E-08	Sodium-dependent phosphate transport protein 2B OS=Bos taurus OX=9913 GN=SLC34A2 PE=1 SV=1	
Xenia_sp_TRINITY_DN50674_c0_g1	33.82317927	4.106984607	1.252408793	2.36E-05	0.008651339	Homeotic protein distal-less OS=Drosophila melanogaster OX=7227 GN=Dll PE=2 SV=3	
Xenia_sp_TRINITY_DN64534_c0_g1	13.80870407	4.077547266	1.048167788	9.80E-06	0.004325549		
Xenia_sp_TRINITY_DN68696_c4_g1	84.29149296	3.98097241	1.335058709	0.000134415	0.029416507		
Xenia_sp_TRINITY_DN68879_c1_g1	133.3288272	3.935555412	0.771355225	1.48E-08	2.75E-05	Fibroblast growth factor receptor 4 OS=Coturnix coturnix OX=9091 GN=FGFR4 PE=2 SV=1	
Xenia_sp_TRINITY_DN65601_c0_g1	420.4994583	3.86161935	0.795746344	8.02E-08	9.94E-05		
Xenia_sp_TRINITY_DN69131_c1_g2	61.39608368	3.85987834	1.111509794	2.71E-05	0.009675271	Histone-lysine N-methyltransferase EZH2 OS=Danio rerio OX=7955 GN=ezh2 PE=2 SV=1	
Xenia_sp_TRINITY_DN73138_c2_g1	60.87396433	3.823042244	1.031659858	9.14E-06	0.004104477	Tropomyosin-2 OS=Podocoryna carnea OX=6096 GN=TPM2 PE=2 SV=1	
Xenia_sp_TRINITY_DN71538_c1_g2	365.8469505	3.546543684	1.00636992	2.21E-05	0.008472957	L-tryptophan decarboxylase OS=Psilocybe cubensis OX=181762 GN=psiD PE=1 SV=1	
Xenia_sp_TRINITY_DN69743_c3_g8	30.42814479	3.502209217	1.18758473	9.51E-05	0.023363721	Peroxidasin homolog OS=Homo sapiens OX=9606 GN=PXDN PE=1 SV=2	
Xenia_sp_TRINITY_DN50225_c0_g1	106.0369827	3.389687738	0.793653911	1.09E-06	0.000746367		
Xenia_sp_TRINITY_DN58177_c0_g1	34.89723861	3.297353108	0.741524719	4.65E-07	0.000367301	Zinc finger protein ZIC 4 OS=Homo sapiens OX=9606 GN=ZIC4 PE=2 SV=3	
Xenia_sp_TRINITY_DN72810_c0_g6	299.1661365	3.243869658	0.966633907	4.13E-05	0.012964013	"Hydroxymethylglutaryl-CoA synthase, cytoplasmic OS=Pongo abelii OX=9601 GN=HMGCS1 PE=2 SV=1"	
Xenia_sp_TRINITY_DN72658_c0_g5	155.1543003	3.176397766	0.602219948	7.24E-09	1.45E-05	"Myosin light chain 3, skeletal muscle isoform OS=Gallus gallus OX=9031 PE=1 SV=3"	
Xenia_sp_TRINITY_DN62715_c0_g3	82.63513714	3.126067929	0.966603121	5.61E-05	0.016043095	Sodium-dependent phosphate transport protein 2B OS=Rattus norvegicus OX=10116 GN=Slc34a2 PE=1 SV=1	
Xenia_sp_TRINITY_DN72512_c2_g1	515.5480842	3.104294364	0.803627558	6.25E-06	0.003012697	"Steroid 17-alpha-hydroxylase/17,20 lyase OS=Rana dybowskii OX=71582 GN=CYP17A1 PE=2 SV=1"	
Xenia_sp_TRINITY_DN72331_c1_g3	114.9083116	3.045022977	0.696196029	5.68E-07	0.000422382	Laccase-4 OS=Trametes villosa OX=47662 GN=LCC4 PE=3 SV=1	
Xenia_sp_TRINITY_DN68625_c2_g1	305.1852648	3.040396522	0.508996224	1.46E-10	3.79E-07	Fibroblast growth factor 16 OS=Rattus norvegicus OX=10116 GN=Fgf16 PE=2 SV=1	
Xenia_sp_TRINITY_DN70846_c0_g1	78.53026282	3.018338128	0.546260589	1.74E-09	3.78E-06	Transcription factor SOX-18 OS=Mus musculus OX=10090 GN=Sox18 PE=1 SV=3	
Xenia_sp_TRINITY_DN71708_c2_g2	144.2953065	2.991849681	0.859110106	2.26E-05	0.00852936		
Xenia_sp_TRINITY_DN69743_c3_g1	34.59860714	2.95879477	1.09165451	0.000224019	0.042584862	Peroxidase mlt-7 OS=Caenorhabditis elegans OX=6239 GN=mlt-7 PE=1 SV=1	
Xenia_sp_TRINITY_DN70080_c8_g1	602.6301597	2.95620189	0.503871739	2.70E-10	6.39E-07		
Xenia_sp_TRINITY_DN71589_c0_g3	174.1964282	2.851003817	0.936997401	0.000106036	0.025334901	Carbonic anhydrase 12 OS=Mus musculus OX=10090 GN=Ca12 PE=1 SV=1	
Xenia_sp_TRINITY_DN68583_c5_g4	100.7868704	2.799194749	0.670052162	1.26E-06	0.00082524		
Xenia_sp_TRINITY_DN69473_c0_g1	78.54207967	2.779931401	0.98965747	0.000215692	0.042092624		
Xenia_sp_TRINITY_DN68696_c4_g2	112.7133153	2.775736341	0.822326062	3.42E-05	0.011451269	Uncharacterized protein y4qB OS=Sinorhizobium fredii (strain NBRC 101917 / NGR234) OX=394 GN=NGR_a01960 PE=4 SV=1	
Xenia_sp_TRINITY_DN67958_c0_g1	30.132433	2.74692637	0.664843138	2.02E-06	0.001146353	Protein Wnt-1 OS=Gallus gallus OX=9031 GN=WNT1 PE=1 SV=3	
Xenia_sp_TRINITY_DN73590_c4_g1	85.99501033	2.70438893	0.349239495	4.90E-16	4.26E-12	Spondin-2 OS=Homo sapiens OX=9606 GN=SPON2 PE=1 SV=3	
Xenia_sp_TRINITY_DN57331_c0_g1	16.97384389	2.680843771	0.985389456	0.000260606	0.047461245	Tropomodulin-2 OS=Rattus norvegicus OX=10116 GN=Tmod2 PE=1 SV=1	
Xenia_sp_TRINITY_DN72428_c0_g1	59.64204029	2.617795449	0.956745483	0.000270041	0.048501167	Adenylyltransferase and sulfurtransferase MOCS3 OS=Culex quinquefasciatus OX=7176 GN=CPIJ001621 PE=3 SV=1	
Xenia_sp_TRINITY_DN70504_c2_g2	26.17043413	2.601614426	0.964267197	0.000257189	0.047168753	Glycogen debranching enzyme OS=Equus caballus OX=9796 GN=AGL PE=2 SV=1	
Xenia_sp_TRINITY_DN73763_c0_g2	498.9700359	2.600211302	0.773196138	3.73E-05	0.012089601	Chloride anion exchanger OS=Rattus norvegicus OX=10116 GN=Slc26a3 PE=2 SV=1	Pendrin OS=Homo sapiens OX=9606 GN=SLC26A4 PE=1 SV=1
Xenia_sp_TRINITY_DN67687_c1_g2	102.304048	2.559474299	0.505706431	2.13E-08	3.47E-05	Astacin-like metalloendopeptidase OS=Gallus gallus OX=9031 GN=ASTL PE=2 SV=1	
Xenia_sp_TRINITY_DN66918_c0_g1	59.72256808	2.533204305	0.885374659	0.000173402	0.035558288	UbiA prenyltransferase domain-containing protein 1 OS=Gallus gallus OX=9031 GN=UBIAD1 PE=2 SV=1	
Xenia_sp_TRINITY_DN70930_c0_g1	88.0841626	2.506204187	0.529433249	1.10E-07	0.000121068	Protein shifted OS=Drosophila melanogaster OX=7227 GN=shf PE=1 SV=2	
Xenia_sp_TRINITY_DN70237_c0_g4	49.69252395	2.476726331	0.656796836	7.46E-06	0.003469505	Thrombospondin-4 OS=Homo sapiens OX=9606 GN=THBS4 PE=1 SV=2	
Xenia_sp_TRINITY_DN70230_c1_g1	141.2275577	2.453235854	0.543401905	3.25E-07	0.000273182		
Xenia_sp_TRINITY_DN71162_c2_g2	78.11040625	2.403381384	0.469917799	1.94E-08	3.36E-05		
Xenia_sp_TRINITY_DN68069_c0_g4	926.3093089	2.387787052	0.477212031	3.33E-08	5.11E-05	Transgelin-2 OS=Rattus norvegicus OX=10116 GN=Tagln2 PE=1 SV=1	Calponin-1 OS=Gallus gallus OX=9031 GN=CNN1 PE=1 SV=2
Xenia_sp_TRINITY_DN65343_c0_g2	32.17361678	2.383490194	0.804720415	0.000120241	0.027711736	Phospholipase B-like protein G OS=Dictyostelium discoideum OX=44689 GN=plbG PE=3 SV=1	
Xenia_sp_TRINITY_DN69095_c2_g9	100.5297408	2.372390876	0.50414735	1.39E-07	0.000139323	BarH-like 1 homeobox protein OS=Homo sapiens OX=9606 GN=BARHL1 PE=2 SV=1	
Xenia_sp_TRINITY_DN70918_c0_g2	629.1727004	2.370223779	0.567992095	1.65E-06	0.001024231	"Steroid 17-alpha-hydroxylase/17,20 lyase OS=Squalus acanthias OX=7797 GN=CYP17A1 PE=2 SV=1"	
Xenia_sp_TRINITY_DN69619_c2_g5	164.4631082	2.336311087	0.75835756	8.97E-05	0.022911751		
Xenia_sp_TRINITY_DN69827_c0_g2	42.73807356	2.301257202	0.757758386	0.000111069	0.026059252	Cationic amino acid transporter 2 OS=Xenopus laevis OX=8355 GN=slc7a2 PE=2 SV=1	
Xenia_sp_TRINITY_DN71659_c0_g3	795.3077842	2.290692653	0.321195587	6.67E-14	3.48E-10	Protein DD3-3 OS=Dictyostelium discoideum OX=44689 GN=DD3-3 PE=2 SV=1	
Xenia_sp_TRINITY_DN70416_c0_g1	1777.77317	2.28440547	0.668513747	3.20E-05	0.010969349	Cytochrome P450 2U1 OS=Rattus norvegicus OX=10116 GN=Cyp2u1 PE=1 SV=1	
Xenia_sp_TRINITY_DN69024_c0_g1	231.7731675	2.264377401	0.472980387	1.13E-07	0.000121068	Heme transporter hrg1-A OS=Xenopus laevis OX=8355 GN=slc48a1-a PE=2 SV=1	
Xenia_sp_TRINITY_DN72720_c2_g3	139.3187129	2.247394307	0.460615873	6.83E-08	8.90E-05	Putative ferric-chelate reductase 1 OS=Danio rerio OX=7955 GN=frrs1 PE=2 SV=1	
Xenia_sp_TRINITY_DN73657_c0_g1	1460.882726	2.230483228	0.720945946	9.19E-05	0.023204788		
Xenia_sp_TRINITY_DN73712_c0_g1	3974.015609	2.223304208	0.629530683	2.09E-05	0.008393374		
Xenia_sp_TRINITY_DN73140_c2_g2	43464.50974	2.146657421	0.637484618	3.81E-05	0.012089601		
Xenia_sp_TRINITY_DN68794_c0_g1	382.1628797	2.110621312	0.566425776	1.05E-05	0.004555199	N-acetylaspartate synthetase OS=Danio rerio OX=7955 GN=nat8l PE=2 SV=1	
Xenia_sp_TRINITY_DN68583_c5_g5	598.8369488	2.10897923	0.467503222	3.63E-07	0.000295363	Cytosolic carboxypeptidase-like protein 5 OS=Rattus norvegicus OX=10116 GN=Agbl5 PE=2 SV=1	Protein Wnt-16 OS=Bos taurus OX=9913 GN=WNT16 PE=2 SV=1
Xenia_sp_TRINITY_DN69863_c0_g1	649.547358	2.090310696	0.513840471	2.58E-06	0.001398673	Lysosome-associated membrane glycoprotein 1 OS=Mus musculus OX=10090 GN=Lamp1 PE=1 SV=2	
Xenia_sp_TRINITY_DN69085_c6_g1	301.0725517	2.088003947	0.569955352	1.24E-05	0.005293664	Elongation of very long chain fatty acids protein 4 OS=Macaca mulatta OX=9544 GN=ELOVL4 PE=3 SV=1	
Xenia_sp_TRINITY_DN74142_c1_g3	1277.292126	2.048448842	0.578664357	2.04E-05	0.0082903	Cholinesterase OS=Mus musculus OX=10090 GN=Bche PE=1 SV=2	
Xenia_sp_TRINITY_DN68583_c5_g6	116.7399276	1.942337808	0.652837986	0.000137984	0.029886314	Protein Wnt-4 OS=Rattus norvegicus OX=10116 GN=Wnt4 PE=2 SV=1	
Xenia_sp_TRINITY_DN70617_c0_g1	133.6721143	1.933124792	0.723186505	0.000284694	0.049767276		
Xenia_sp_TRINITY_DN72989_c4_g1	130.561813	1.925813612	0.649021134	0.000129435	0.028615653	Excitatory amino acid transporter 3 OS=Homo sapiens OX=9606 GN=SLC1A1 PE=1 SV=2	
Xenia_sp_TRINITY_DN69485_c0_g1	49.95318444	1.901885999	0.556406893	3.20E-05	0.010969349	Protein Wnt-3a OS=Mus musculus OX=10090 GN=Wnt3a PE=1 SV=1	
Xenia_sp_TRINITY_DN73815_c0_g1	533.9420948	1.888824863	0.385277308	5.30E-08	7.27E-05	Serine protease inhibitor dipetalogastin (Fragment) OS=Dipetalogaster maximus OX=72496 PE=1 SV=2	
Xenia_sp_TRINITY_DN69827_c0_g1	238.2971219	1.8717021	0.58407144	6.22E-05	0.01741202	High affinity cationic amino acid transporter 1 OS=Mus musculus OX=10090 GN=Slc7a1 PE=1 SV=1	
Xenia_sp_TRINITY_DN71552_c1_g2	277.1215879	1.861802506	0.532371666	2.31E-05	0.008594763	Probable inactive purple acid phosphatase 27 OS=Arabidopsis thaliana OX=3702 GN=PAP27 PE=2 SV=1	
Xenia_sp_TRINITY_DN72624_c0_g1	1855.009533	1.818268458	0.389043015	1.61E-07	0.000154842		
Xenia_sp_TRINITY_DN73543_c0_g1	114.6893012	1.796118922	0.508845298	2.19E-05	0.008472957		
Xenia_sp_TRINITY_DN69817_c4_g3	81.08131167	1.778720239	0.600429266	0.000122911	0.028078801	"Myosin light chain kinase, smooth muscle OS=Mus musculus OX=10090 GN=Mylk PE=1 SV=3"	
Xenia_sp_TRINITY_DN73106_c0_g1	5225.724056	1.772180053	0.534236326	4.41E-05	0.01313242	Myosin regulatory light polypeptide 9 OS=Pongo abelii OX=9601 GN=MYL9 PE=2 SV=3	
Xenia_sp_TRINITY_DN50131_c0_g1	180.7405042	1.733530894	0.59747984	0.000141629	0.030233199		
Xenia_sp_TRINITY_DN69766_c1_g3	113.6514414	1.720519939	0.393314598	6.40E-07	0.000462728	Tenascin-X OS=Homo sapiens OX=9606 GN=TNXB PE=1 SV=4	
Xenia_sp_TRINITY_DN71969_c0_g2	202.6636554	1.702185312	0.610834917	0.000221112	0.042341304	Protein dispatched homolog 1 OS=Danio rerio OX=7955 GN=disp1 PE=2 SV=1	
Xenia_sp_TRINITY_DN69222_c4_g2	591.3986626	1.70163038	0.509636152	4.24E-05	0.012982217		
Xenia_sp_TRINITY_DN72949_c1_g1	668.3367671	1.697041774	0.383619614	5.47E-07	0.000418769	Tachylectin-2 OS=Tachypleus tridentatus OX=6853 PE=1 SV=1	
Xenia_sp_TRINITY_DN72958_c0_g5	2188.639422	1.64052411	0.582111421	0.000231812	0.043420055	Carbonic anhydrase 9 OS=Mus musculus OX=10090 GN=Ca9 PE=2 SV=2	
Xenia_sp_TRINITY_DN73083_c1_g8	147.5386736	1.496853007	0.469719964	6.76E-05	0.018533502	Transmembrane protease serine 9 OS=Rattus norvegicus OX=10116 GN=Tmprss9 PE=3 SV=1	Anionic trypsin-1 OS=Rattus norvegicus OX=10116 GN=Prss1 PE=1 SV=1
Xenia_sp_TRINITY_DN59361_c0_g1	1014.583312	1.472800879	0.522087418	0.00020591	0.041250116		
Xenia_sp_TRINITY_DN72113_c2_g1	776.9513934	1.409685163	0.416126829	3.43E-05	0.011451269	Prosaposin OS=Bos taurus OX=9913 GN=PSAP PE=1 SV=3	
Xenia_sp_TRINITY_DN68126_c0_g2	143.2331059	1.363663735	0.489380902	0.000240536	0.044427541	Gamma-glutamyl hydrolase OS=Homo sapiens OX=9606 GN=GGH PE=1 SV=2	
Xenia_sp_TRINITY_DN71564_c1_g1	183.7390349	1.343953148	0.365491047	1.26E-05	0.005294968	Cornifelin homolog A OS=Xenopus laevis OX=8355 GN=cnfn-a PE=3 SV=1	
Xenia_sp_TRINITY_DN69401_c0_g1	170.2735214	1.338833755	0.441577172	0.000109634	0.025956346		
Xenia_sp_TRINITY_DN73873_c1_g1	92.30944823	1.292445257	0.415146137	9.27E-05	0.023204788	Caspase-6 OS=Homo sapiens OX=9606 GN=CASP6 PE=1 SV=2	Cornifin-B OS=Mus musculus OX=10090 GN=Sprr1b PE=2 SV=1
Xenia_sp_TRINITY_DN73274_c4_g1	151.4957459	-1.00484595	0.380406502	0.000233414	0.043420055		
Xenia_sp_TRINITY_DN68877_c1_g1	738.4978008	-1.028757043	0.303261601	2.50E-05	0.00904209		
Xenia_sp_TRINITY_DN74646_c1_g2	105.1958646	-1.054529187	0.328883522	5.28E-05	0.015275906		
Xenia_sp_TRINITY_DN73614_c0_g1	470.476956	-1.081059948	0.399760399	0.000208783	0.041506478		
Xenia_sp_TRINITY_DN72029_c0_g3	178.2710155	-1.085171396	0.374301554	0.000125327	0.028207814		
Xenia_sp_TRINITY_DN70403_c0_g1	240.1783193	-1.283148335	0.461054156	0.000149224	0.031340732		
Xenia_sp_TRINITY_DN73440_c0_g1	216.103091	-1.331816201	0.440790541	7.44E-05	0.019573448		
Xenia_sp_TRINITY_DN70758_c1_g1	72.427813	-1.404714028	0.466342112	8.37E-05	0.021804349		
Xenia_sp_TRINITY_DN72985_c0_g1	251.550146	-1.595049638	0.418452619	4.58E-06	0.002384074		
Xenia_sp_TRINITY_DN67706_c0_g1	90.13327147	-1.794695022	0.636819533	0.000125642	0.028207814		
Xenia_sp_TRINITY_DN71729_c4_g1	145.7756234	-1.846062656	0.648125254	9.49E-05	0.023363721		
Xenia_sp_TRINITY_DN70359_c0_g1	73.17760834	-1.851817901	0.685967493	0.000165881	0.034286057		
Xenia_sp_TRINITY_DN62552_c0_g1	56.72377317	-1.853063083	0.486890909	5.04E-06	0.002573592		
Xenia_sp_TRINITY_DN68909_c0_g2	509.5426525	-1.892432235	0.464592297	1.37E-06	0.000870066		
Xenia_sp_TRINITY_DN74553_c0_g1	595.5640095	-1.896854265	0.641504133	7.21E-05	0.019366618		
Xenia_sp_TRINITY_DN73014_c0_g7	96.23158373	-1.971190305	0.585768588	2.18E-05	0.008472957		
Xenia_sp_TRINITY_DN61947_c2_g1	131.159112	-2.12290937	0.482750504	2.96E-07	0.000265661		
Xenia_sp_TRINITY_DN59898_c0_g1	75.16962959	-2.205960371	0.715342151	4.38E-05	0.01313242		
Xenia_sp_TRINITY_DN71355_c0_g2	285.2764419	-2.251641618	0.666387386	1.75E-05	0.007232371		
Xenia_sp_TRINITY_DN74541_c0_g1	374.7249367	-2.260208743	0.550822164	1.09E-06	0.000746367		
Xenia_sp_TRINITY_DN73903_c0_g1	626.7126112	-2.501459725	0.63274533	1.90E-06	0.001125862		
Xenia_sp_TRINITY_DN72986_c1_g1	298.5471749	-2.688511577	0.739198039	5.98E-06	0.002940297		
Xenia_sp_TRINITY_DN65454_c0_g1	29.65941624	-2.717450733	0.718261844	5.90E-06	0.002940297		
Xenia_sp_TRINITY_DN71494_c1_g4	832.8295706	-2.930824362	0.639792059	1.16E-07	0.000121068		
Xenia_sp_TRINITY_DN74154_c1_g4	44.78725855	-3.150924192	0.775959061	2.01E-06	0.001146353		
Xenia_sp_TRINITY_DN70230_c1_g2	721.4789212	-3.346308207	0.507470643	1.01E-12	4.37E-09		
Xenia_sp_TRINITY_DN74553_c1_g5	8273.478667	-3.95273934	0.538445652	4.87E-15	3.17E-11		
Xenia_sp_TRINITY_DN69841_c1_g1	85.62579076	-4.474875282	0.555683565	8.39E-17	1.09E-12		
Xenia_sp_TRINITY_DN70083_c1_g6	66.98262148	-5.017686207	0.807539503	4.80E-11	1.39E-07		
