{
    "read_files": "( /dev/fd/63, /dev/fd/62 )",
    "expected_format": "ISR",
    "compatible_fragment_ratio": 0.8957031129722572,
    "num_compatible_fragments": 5934309,
    "num_assigned_fragments": 6625308,
    "num_consistent_mappings": 15646061,
    "num_inconsistent_mappings": 1356244,
    "MSF": 0,
    "OSF": 77,
    "ISF": 84889,
    "MSR": 0,
    "OSR": 129872,
    "ISR": 15646061,
    "SF": 22868,
    "SR": 1118178,
    "MU": 0,
    "OU": 0,
    "IU": 0,
    "U": 0
}