{
    "salmon_version": "0.9.1",
    "index": "/home/svargas/Salmon-latest_linux_x86_64/dataset_3396.dat.salmon_quasi.idx",
    "libType": "ISR",
    "mates1": "/dev/fd/63",
    "mates2": "/dev/fd/62",
    "output": "Regeneration_S6_1",
    "threads": "4",
    "auxDir": "aux_info"
}